simulation/qsim/gpu.msim.vcd
$comment
	File created using the following command:
		vcd file gpu.msim.vcd -direction
$end
$date
	Thu Aug 20 05:42:55 2020
$end
$version
	ModelSim Version 10.5b
$end
$timescale
	1ps
$end

$scope module simLcdTester_vlg_vec_tst $end
$var reg 1 ! clk_12mhz $end
$var reg 1 " data_valid $end
$var reg 24 # rgb_in [23:0] $end
$var reg 1 $ rst $end
$var wire 1 % d_clk $end
$var wire 1 & d_en $end
$var wire 1 ' data_req $end
$var wire 1 ( disp_en $end
$var wire 1 ) hsync $end
$var wire 1 * rgb_out [23] $end
$var wire 1 + rgb_out [22] $end
$var wire 1 , rgb_out [21] $end
$var wire 1 - rgb_out [20] $end
$var wire 1 . rgb_out [19] $end
$var wire 1 / rgb_out [18] $end
$var wire 1 0 rgb_out [17] $end
$var wire 1 1 rgb_out [16] $end
$var wire 1 2 rgb_out [15] $end
$var wire 1 3 rgb_out [14] $end
$var wire 1 4 rgb_out [13] $end
$var wire 1 5 rgb_out [12] $end
$var wire 1 6 rgb_out [11] $end
$var wire 1 7 rgb_out [10] $end
$var wire 1 8 rgb_out [9] $end
$var wire 1 9 rgb_out [8] $end
$var wire 1 : rgb_out [7] $end
$var wire 1 ; rgb_out [6] $end
$var wire 1 < rgb_out [5] $end
$var wire 1 = rgb_out [4] $end
$var wire 1 > rgb_out [3] $end
$var wire 1 ? rgb_out [2] $end
$var wire 1 @ rgb_out [1] $end
$var wire 1 A rgb_out [0] $end
$var wire 1 B vsync $end

$scope module i1 $end
$var wire 1 C gnd $end
$var wire 1 D vcc $end
$var wire 1 E unknown $end
$var tri1 1 F devclrn $end
$var tri1 1 G devpor $end
$var tri1 1 H devoe $end
$var wire 1 I data_req~output_o $end
$var wire 1 J rgb_out[0]~output_o $end
$var wire 1 K rgb_out[1]~output_o $end
$var wire 1 L rgb_out[2]~output_o $end
$var wire 1 M rgb_out[3]~output_o $end
$var wire 1 N rgb_out[4]~output_o $end
$var wire 1 O rgb_out[5]~output_o $end
$var wire 1 P rgb_out[6]~output_o $end
$var wire 1 Q rgb_out[7]~output_o $end
$var wire 1 R rgb_out[8]~output_o $end
$var wire 1 S rgb_out[9]~output_o $end
$var wire 1 T rgb_out[10]~output_o $end
$var wire 1 U rgb_out[11]~output_o $end
$var wire 1 V rgb_out[12]~output_o $end
$var wire 1 W rgb_out[13]~output_o $end
$var wire 1 X rgb_out[14]~output_o $end
$var wire 1 Y rgb_out[15]~output_o $end
$var wire 1 Z rgb_out[16]~output_o $end
$var wire 1 [ rgb_out[17]~output_o $end
$var wire 1 \ rgb_out[18]~output_o $end
$var wire 1 ] rgb_out[19]~output_o $end
$var wire 1 ^ rgb_out[20]~output_o $end
$var wire 1 _ rgb_out[21]~output_o $end
$var wire 1 ` rgb_out[22]~output_o $end
$var wire 1 a rgb_out[23]~output_o $end
$var wire 1 b vsync~output_o $end
$var wire 1 c hsync~output_o $end
$var wire 1 d d_en~output_o $end
$var wire 1 e d_clk~output_o $end
$var wire 1 f disp_en~output_o $end
$var wire 1 g clk_12mhz~input_o $end
$var wire 1 h clk_12mhz~inputclkctrl_outclk $end
$var wire 1 i data_valid~input_o $end
$var wire 1 j inst_lcdPixelWriter|dclk_en~0_combout $end
$var wire 1 k inst_lcdPixelWriter|dclk_en~q $end
$var wire 1 l inst_lcdPixelWriter|dclk_counter[0]~16_combout $end
$var wire 1 m rst~input_o $end
$var wire 1 n rst~inputclkctrl_outclk $end
$var wire 1 o inst_lcdPixelWriter|dclk_counter[1]~19 $end
$var wire 1 p inst_lcdPixelWriter|dclk_counter[2]~20_combout $end
$var wire 1 q inst_lcdPixelWriter|dclk_counter[2]~21 $end
$var wire 1 r inst_lcdPixelWriter|dclk_counter[3]~22_combout $end
$var wire 1 s inst_lcdPixelWriter|dclk_counter[3]~23 $end
$var wire 1 t inst_lcdPixelWriter|dclk_counter[4]~24_combout $end
$var wire 1 u inst_lcdPixelWriter|dclk_counter[4]~25 $end
$var wire 1 v inst_lcdPixelWriter|dclk_counter[5]~26_combout $end
$var wire 1 w inst_lcdPixelWriter|dclk_counter[5]~27 $end
$var wire 1 x inst_lcdPixelWriter|dclk_counter[6]~28_combout $end
$var wire 1 y inst_lcdPixelWriter|dclk_counter[6]~29 $end
$var wire 1 z inst_lcdPixelWriter|dclk_counter[7]~30_combout $end
$var wire 1 { inst_lcdPixelWriter|dclk_counter[7]~31 $end
$var wire 1 | inst_lcdPixelWriter|dclk_counter[8]~32_combout $end
$var wire 1 } inst_lcdPixelWriter|dclk_counter[8]~33 $end
$var wire 1 ~ inst_lcdPixelWriter|dclk_counter[9]~34_combout $end
$var wire 1 !! inst_lcdPixelWriter|dclk_counter[9]~35 $end
$var wire 1 "! inst_lcdPixelWriter|dclk_counter[10]~36_combout $end
$var wire 1 #! inst_lcdPixelWriter|data_req~1_combout $end
$var wire 1 $! inst_lcdPixelWriter|dclk_counter[10]~37 $end
$var wire 1 %! inst_lcdPixelWriter|dclk_counter[11]~38_combout $end
$var wire 1 &! inst_lcdPixelWriter|dclk_counter[11]~39 $end
$var wire 1 '! inst_lcdPixelWriter|dclk_counter[12]~40_combout $end
$var wire 1 (! inst_lcdPixelWriter|dclk_counter[12]~41 $end
$var wire 1 )! inst_lcdPixelWriter|dclk_counter[13]~42_combout $end
$var wire 1 *! inst_lcdPixelWriter|dclk_counter[13]~43 $end
$var wire 1 +! inst_lcdPixelWriter|dclk_counter[14]~44_combout $end
$var wire 1 ,! inst_lcdPixelWriter|dclk_counter[14]~45 $end
$var wire 1 -! inst_lcdPixelWriter|dclk_counter[15]~46_combout $end
$var wire 1 .! inst_lcdPixelWriter|data_req~0_combout $end
$var wire 1 /! inst_lcdPixelWriter|data_req~2_combout $end
$var wire 1 0! inst_lcdPixelWriter|data_req~3_combout $end
$var wire 1 1! inst_lcdPixelWriter|always2~0_combout $end
$var wire 1 2! inst_lcdPixelWriter|dclk_counter[0]~17 $end
$var wire 1 3! inst_lcdPixelWriter|dclk_counter[1]~18_combout $end
$var wire 1 4! inst_lcdPixelWriter|hclk_counter[0]~16_combout $end
$var wire 1 5! inst_lcdPixelWriter|hclk_counter[1]~19 $end
$var wire 1 6! inst_lcdPixelWriter|hclk_counter[2]~20_combout $end
$var wire 1 7! inst_lcdPixelWriter|hclk_counter[2]~21 $end
$var wire 1 8! inst_lcdPixelWriter|hclk_counter[3]~22_combout $end
$var wire 1 9! inst_lcdPixelWriter|hclk_counter[3]~23 $end
$var wire 1 :! inst_lcdPixelWriter|hclk_counter[4]~24_combout $end
$var wire 1 ;! inst_lcdPixelWriter|hclk_counter[4]~25 $end
$var wire 1 <! inst_lcdPixelWriter|hclk_counter[5]~26_combout $end
$var wire 1 =! inst_lcdPixelWriter|hclk_counter[5]~27 $end
$var wire 1 >! inst_lcdPixelWriter|hclk_counter[6]~28_combout $end
$var wire 1 ?! inst_lcdPixelWriter|hclk_counter[6]~29 $end
$var wire 1 @! inst_lcdPixelWriter|hclk_counter[7]~30_combout $end
$var wire 1 A! inst_lcdPixelWriter|hclk_counter[7]~31 $end
$var wire 1 B! inst_lcdPixelWriter|hclk_counter[8]~32_combout $end
$var wire 1 C! inst_lcdPixelWriter|hclk_counter[8]~33 $end
$var wire 1 D! inst_lcdPixelWriter|hclk_counter[9]~34_combout $end
$var wire 1 E! inst_lcdPixelWriter|hclk_counter[9]~35 $end
$var wire 1 F! inst_lcdPixelWriter|hclk_counter[10]~36_combout $end
$var wire 1 G! inst_lcdPixelWriter|hclk_counter[10]~37 $end
$var wire 1 H! inst_lcdPixelWriter|hclk_counter[11]~38_combout $end
$var wire 1 I! inst_lcdPixelWriter|hclk_counter[11]~39 $end
$var wire 1 J! inst_lcdPixelWriter|hclk_counter[12]~40_combout $end
$var wire 1 K! inst_lcdPixelWriter|hclk_counter[12]~41 $end
$var wire 1 L! inst_lcdPixelWriter|hclk_counter[13]~42_combout $end
$var wire 1 M! inst_lcdPixelWriter|hclk_counter[13]~43 $end
$var wire 1 N! inst_lcdPixelWriter|hclk_counter[14]~44_combout $end
$var wire 1 O! inst_lcdPixelWriter|hclk_counter[14]~45 $end
$var wire 1 P! inst_lcdPixelWriter|hclk_counter[15]~46_combout $end
$var wire 1 Q! inst_lcdPixelWriter|LessThan5~3_combout $end
$var wire 1 R! inst_lcdPixelWriter|LessThan5~1_combout $end
$var wire 1 S! inst_lcdPixelWriter|LessThan5~0_combout $end
$var wire 1 T! inst_lcdPixelWriter|LessThan5~2_combout $end
$var wire 1 U! inst_lcdPixelWriter|LessThan5~4_combout $end
$var wire 1 V! inst_lcdPixelWriter|hclk_counter[0]~17 $end
$var wire 1 W! inst_lcdPixelWriter|hclk_counter[1]~18_combout $end
$var wire 1 X! inst_lcdPixelWriter|LessThan5~5_combout $end
$var wire 1 Y! inst_lcdPixelWriter|data_req~4_combout $end
$var wire 1 Z! rgb_in[0]~input_o $end
$var wire 1 [! inst_lcdPixelWriter|lcdPins.rgb[0]~feeder_combout $end
$var wire 1 \! rgb_in[1]~input_o $end
$var wire 1 ]! inst_lcdPixelWriter|lcdPins.rgb[1]~feeder_combout $end
$var wire 1 ^! rgb_in[2]~input_o $end
$var wire 1 _! inst_lcdPixelWriter|lcdPins.rgb[2]~feeder_combout $end
$var wire 1 `! rgb_in[3]~input_o $end
$var wire 1 a! inst_lcdPixelWriter|lcdPins.rgb[3]~feeder_combout $end
$var wire 1 b! rgb_in[4]~input_o $end
$var wire 1 c! inst_lcdPixelWriter|lcdPins.rgb[4]~feeder_combout $end
$var wire 1 d! rgb_in[5]~input_o $end
$var wire 1 e! rgb_in[6]~input_o $end
$var wire 1 f! inst_lcdPixelWriter|lcdPins.rgb[6]~feeder_combout $end
$var wire 1 g! rgb_in[7]~input_o $end
$var wire 1 h! inst_lcdPixelWriter|lcdPins.rgb[7]~feeder_combout $end
$var wire 1 i! rgb_in[8]~input_o $end
$var wire 1 j! inst_lcdPixelWriter|lcdPins.rgb[8]~feeder_combout $end
$var wire 1 k! rgb_in[9]~input_o $end
$var wire 1 l! inst_lcdPixelWriter|lcdPins.rgb[9]~feeder_combout $end
$var wire 1 m! rgb_in[10]~input_o $end
$var wire 1 n! inst_lcdPixelWriter|lcdPins.rgb[10]~feeder_combout $end
$var wire 1 o! rgb_in[11]~input_o $end
$var wire 1 p! inst_lcdPixelWriter|lcdPins.rgb[11]~feeder_combout $end
$var wire 1 q! rgb_in[12]~input_o $end
$var wire 1 r! inst_lcdPixelWriter|lcdPins.rgb[12]~feeder_combout $end
$var wire 1 s! rgb_in[13]~input_o $end
$var wire 1 t! inst_lcdPixelWriter|lcdPins.rgb[13]~feeder_combout $end
$var wire 1 u! rgb_in[14]~input_o $end
$var wire 1 v! inst_lcdPixelWriter|lcdPins.rgb[14]~feeder_combout $end
$var wire 1 w! rgb_in[15]~input_o $end
$var wire 1 x! inst_lcdPixelWriter|lcdPins.rgb[15]~feeder_combout $end
$var wire 1 y! rgb_in[16]~input_o $end
$var wire 1 z! inst_lcdPixelWriter|lcdPins.rgb[16]~feeder_combout $end
$var wire 1 {! rgb_in[17]~input_o $end
$var wire 1 |! inst_lcdPixelWriter|lcdPins.rgb[17]~feeder_combout $end
$var wire 1 }! rgb_in[18]~input_o $end
$var wire 1 ~! inst_lcdPixelWriter|lcdPins.rgb[18]~feeder_combout $end
$var wire 1 !" rgb_in[19]~input_o $end
$var wire 1 "" inst_lcdPixelWriter|lcdPins.rgb[19]~feeder_combout $end
$var wire 1 #" rgb_in[20]~input_o $end
$var wire 1 $" inst_lcdPixelWriter|lcdPins.rgb[20]~feeder_combout $end
$var wire 1 %" rgb_in[21]~input_o $end
$var wire 1 &" inst_lcdPixelWriter|lcdPins.rgb[21]~feeder_combout $end
$var wire 1 '" rgb_in[22]~input_o $end
$var wire 1 (" inst_lcdPixelWriter|lcdPins.rgb[22]~feeder_combout $end
$var wire 1 )" rgb_in[23]~input_o $end
$var wire 1 *" inst_lcdPixelWriter|lcdPins.rgb[23]~feeder_combout $end
$var wire 1 +" inst_lcdPixelWriter|vsync~0_combout $end
$var wire 1 ," inst_lcdPixelWriter|LessThan0~0_combout $end
$var wire 1 -" inst_lcdPixelWriter|lcdPins.d_en~q $end
$var wire 1 ." inst_lcdPixelWriter|lcdPins.d_clk~combout $end
$var wire 1 /" inst_lcdPixelWriter|dclk_counter [15] $end
$var wire 1 0" inst_lcdPixelWriter|dclk_counter [14] $end
$var wire 1 1" inst_lcdPixelWriter|dclk_counter [13] $end
$var wire 1 2" inst_lcdPixelWriter|dclk_counter [12] $end
$var wire 1 3" inst_lcdPixelWriter|dclk_counter [11] $end
$var wire 1 4" inst_lcdPixelWriter|dclk_counter [10] $end
$var wire 1 5" inst_lcdPixelWriter|dclk_counter [9] $end
$var wire 1 6" inst_lcdPixelWriter|dclk_counter [8] $end
$var wire 1 7" inst_lcdPixelWriter|dclk_counter [7] $end
$var wire 1 8" inst_lcdPixelWriter|dclk_counter [6] $end
$var wire 1 9" inst_lcdPixelWriter|dclk_counter [5] $end
$var wire 1 :" inst_lcdPixelWriter|dclk_counter [4] $end
$var wire 1 ;" inst_lcdPixelWriter|dclk_counter [3] $end
$var wire 1 <" inst_lcdPixelWriter|dclk_counter [2] $end
$var wire 1 =" inst_lcdPixelWriter|dclk_counter [1] $end
$var wire 1 >" inst_lcdPixelWriter|dclk_counter [0] $end
$var wire 1 ?" inst_lcdPixelWriter|hclk_counter [15] $end
$var wire 1 @" inst_lcdPixelWriter|hclk_counter [14] $end
$var wire 1 A" inst_lcdPixelWriter|hclk_counter [13] $end
$var wire 1 B" inst_lcdPixelWriter|hclk_counter [12] $end
$var wire 1 C" inst_lcdPixelWriter|hclk_counter [11] $end
$var wire 1 D" inst_lcdPixelWriter|hclk_counter [10] $end
$var wire 1 E" inst_lcdPixelWriter|hclk_counter [9] $end
$var wire 1 F" inst_lcdPixelWriter|hclk_counter [8] $end
$var wire 1 G" inst_lcdPixelWriter|hclk_counter [7] $end
$var wire 1 H" inst_lcdPixelWriter|hclk_counter [6] $end
$var wire 1 I" inst_lcdPixelWriter|hclk_counter [5] $end
$var wire 1 J" inst_lcdPixelWriter|hclk_counter [4] $end
$var wire 1 K" inst_lcdPixelWriter|hclk_counter [3] $end
$var wire 1 L" inst_lcdPixelWriter|hclk_counter [2] $end
$var wire 1 M" inst_lcdPixelWriter|hclk_counter [1] $end
$var wire 1 N" inst_lcdPixelWriter|hclk_counter [0] $end
$var wire 1 O" inst_lcdPixelWriter|lcdPins.rgb [23] $end
$var wire 1 P" inst_lcdPixelWriter|lcdPins.rgb [22] $end
$var wire 1 Q" inst_lcdPixelWriter|lcdPins.rgb [21] $end
$var wire 1 R" inst_lcdPixelWriter|lcdPins.rgb [20] $end
$var wire 1 S" inst_lcdPixelWriter|lcdPins.rgb [19] $end
$var wire 1 T" inst_lcdPixelWriter|lcdPins.rgb [18] $end
$var wire 1 U" inst_lcdPixelWriter|lcdPins.rgb [17] $end
$var wire 1 V" inst_lcdPixelWriter|lcdPins.rgb [16] $end
$var wire 1 W" inst_lcdPixelWriter|lcdPins.rgb [15] $end
$var wire 1 X" inst_lcdPixelWriter|lcdPins.rgb [14] $end
$var wire 1 Y" inst_lcdPixelWriter|lcdPins.rgb [13] $end
$var wire 1 Z" inst_lcdPixelWriter|lcdPins.rgb [12] $end
$var wire 1 [" inst_lcdPixelWriter|lcdPins.rgb [11] $end
$var wire 1 \" inst_lcdPixelWriter|lcdPins.rgb [10] $end
$var wire 1 ]" inst_lcdPixelWriter|lcdPins.rgb [9] $end
$var wire 1 ^" inst_lcdPixelWriter|lcdPins.rgb [8] $end
$var wire 1 _" inst_lcdPixelWriter|lcdPins.rgb [7] $end
$var wire 1 `" inst_lcdPixelWriter|lcdPins.rgb [6] $end
$var wire 1 a" inst_lcdPixelWriter|lcdPins.rgb [5] $end
$var wire 1 b" inst_lcdPixelWriter|lcdPins.rgb [4] $end
$var wire 1 c" inst_lcdPixelWriter|lcdPins.rgb [3] $end
$var wire 1 d" inst_lcdPixelWriter|lcdPins.rgb [2] $end
$var wire 1 e" inst_lcdPixelWriter|lcdPins.rgb [1] $end
$var wire 1 f" inst_lcdPixelWriter|lcdPins.rgb [0] $end
$upscope $end
$upscope $end
$enddefinitions $end
#0
$dumpvars
0!
1"
b11101111 #
1$
x%
x&
x'
x(
x)
xA
x@
x?
x>
x=
x<
x;
x:
x9
x8
x7
x6
x5
x4
x3
x2
x1
x0
x/
x.
x-
x,
x+
x*
xB
0C
1D
xE
1F
1G
1H
xI
xJ
xK
xL
xM
xN
xO
xP
xQ
xR
xS
xT
xU
xV
xW
xX
xY
xZ
x[
x\
x]
x^
x_
x`
xa
xb
xc
xd
xe
xf
0g
xh
1i
xj
0k
xl
1m
xn
xo
xp
xq
xr
xs
xt
xu
xv
xw
xx
xy
xz
x{
x|
x}
x~
x!!
x"!
x#!
x$!
x%!
x&!
x'!
x(!
x)!
x*!
x+!
x,!
x-!
x.!
x/!
x0!
x1!
x2!
x3!
x4!
x5!
x6!
x7!
x8!
x9!
x:!
x;!
x<!
x=!
x>!
x?!
x@!
xA!
xB!
xC!
xD!
xE!
xF!
xG!
xH!
xI!
xJ!
xK!
xL!
xM!
xN!
xO!
xP!
xQ!
xR!
xS!
xT!
xU!
xV!
xW!
xX!
xY!
1Z!
x[!
1\!
x]!
1^!
x_!
1`!
xa!
0b!
xc!
1d!
1e!
xf!
1g!
xh!
0i!
xj!
0k!
xl!
0m!
xn!
0o!
xp!
0q!
xr!
0s!
xt!
0u!
xv!
0w!
xx!
0y!
xz!
0{!
x|!
0}!
x~!
0!"
x""
0#"
x$"
0%"
x&"
0'"
x("
0)"
x*"
x+"
x,"
0-"
x."
0>"
0="
0<"
0;"
0:"
09"
08"
07"
06"
05"
04"
03"
02"
01"
00"
0/"
0N"
0M"
0L"
0K"
0J"
0I"
0H"
0G"
0F"
0E"
0D"
0C"
0B"
0A"
0@"
0?"
0f"
0e"
0d"
0c"
0b"
0a"
0`"
0_"
0^"
0]"
0\"
0["
0Z"
0Y"
0X"
0W"
0V"
0U"
0T"
0S"
0R"
0Q"
0P"
0O"
$end
#138
0h
#154
1n
#462
1[!
#464
1]!
#661
0V!
02!
#662
07!
0q
#663
0O!
0K!
0;!
0,!
0(!
0u
#665
0G!
0C!
0$!
0}
#668
0?!
0y
#698
14!
#707
0c!
#713
1Q!
#726
1+"
#787
1M!
19!
1*!
1s
#788
1I!
1&!
#789
1=!
1w
15!
1o
#793
1E!
1A!
1!!
1{
#823
1#!
#837
1/!
#850
1.!
1T!
#852
1S!
#878
0Y!
#892
1l
#1007
1R!
#1098
03!
0W!
#1099
0r
08!
#1100
0v
0)!
0-!
0<!
0L!
0P!
#1102
0~
0%!
0D!
0H!
#1105
0z
0@!
#1221
0j
#1224
0t
0+!
0:!
0N!
#1225
0'!
0J!
#1226
0p
06!
0x
0>!
#1230
0|
0"!
0B!
0F!
#1264
10!
#1437
0."
#1539
0U!
#1573
01!
0,"
#1901
1X!
#2831
1h!
#2833
0z!
#2837
1f!
#2851
0p!
#2853
0v!
#2860
0$"
#2880
1a!
#2889
0^
0-
#2993
0U
0V
0Z
01
05
06
#3026
1_!
#3064
0M
0>
#3067
0T
07
#3071
0l!
#3072
0R
0Y
0[
00
02
09
#3073
0a
0*
#3074
0W
04
#3076
0O
0<
#3077
0P
0;
#3079
0("
#3084
0j!
#3086
0_
0,
#3089
0*"
#3090
0L
0?
#3094
0r!
#3097
0N
0=
0|!
#3100
0x!
#3106
0\
0`
0+
0/
#3118
0n!
#3120
0&"
#3121
0""
#3133
0t!
0~!
#3177
0X
03
#3197
0d
0&
#3198
0]
0.
#3267
0J
0A
#3270
0K
0@
#3865
1b
1B
#3953
1f
1(
#4179
0I
0'
#4459
0Q
0S
08
0:
#4692
0e
0%
#4848
0c
0)
#10000
1!
#10516
1g
#10670
1h
#11982
1."
#12414
1_"
#12418
1f"
1e"
#12419
1`"
#12421
1d"
#12426
1a"
#12427
1c"
#12823
1>"
#13433
0l
#13461
1,"
#13530
12!
#13985
13!
#15286
1e
1%
#15499
1M
1>
#15502
1P
1;
#15508
1O
1<
#15522
1L
1?
#15668
1K
1@
#15671
1J
1A
#16753
1c
1)
#16801
1Q
1:
#20000
b1101111 #
b101111 #
b1111 #
b11111 #
b11101 #
b11100 #
0!
#20514
1b!
#20679
0g!
0e!
0d!
#20681
0g
0\!
0Z!
#20819
0h
#21143
0[!
#21146
0]!
#21212
1c!
#22118
0."
#23754
0h!
#23757
0f!
#25373
0e
0%
#30000
1!
#30516
1g
#30670
1h
#31982
1."
#32414
0_"
#32418
0f"
0e"
#32419
0`"
#32426
1b"
0a"
#32823
0>"
1="
#33402
0o
#33457
03!
#33484
02!
#33521
1l
#33542
1o
#33939
13!
#35286
1e
1%
#35496
0P
0;
#35502
0O
0<
#35529
1N
1=
#35685
0J
0A
#35688
0K
0@
#36873
0Q
0:
#40000
b10100 #
b10010100 #
b11010100 #
b11010110 #
b11010111 #
0!
#40514
1g!
1e!
#40516
1\!
1Z!
#40679
0`!
#40681
0g
#40819
0h
#40978
1[!
#40980
1]!
#42118
0."
#43345
1h!
#43351
1f!
#43799
0a!
#45373
0e
0%
#50000
1!
#50516
1g
#50670
1h
#51982
1."
#52414
1_"
#52418
1f"
1e"
#52419
1`"
#52427
0c"
#52823
1>"
#53433
0l
#53530
12!
#53588
0o
#53967
03!
#54043
1p
#55286
1e
1%
#55491
0M
0>
#55502
1P
1;
#55668
1K
1@
#55671
1J
1A
#56801
1Q
1:
#60000
b11110111 #
b1110111 #
b1110101 #
b1110100 #
0!
#60514
1d!
#60679
0g!
#60681
0g
0\!
0Z!
#60819
0h
#61143
0[!
#61146
0]!
#62118
0."
#63754
0h!
#65373
0e
0%
#70000
1!
#70516
1g
#70670
1h
#71982
1."
#72414
0_"
#72418
0f"
0e"
#72426
1a"
#72823
1<"
0>"
0="
#73454
0p
#73484
02!
#73521
1l
#73531
1q
#73612
1o
#73670
0q
#74067
1p
#75286
1e
1%
#75508
1O
1<
#75685
0J
0A
#75688
0K
0@
#76873
0Q
0:
#80000
b1110000 #
b1010000 #
b11010000 #
0!
#80514
1g!
#80679
0d!
0^!
#80681
0g
#80819
0h
#82118
0."
#83345
1h!
#83941
0_!
#85373
0e
0%
#90000
1!
#90516
1g
#90670
1h
#91982
1."
#92414
1_"
#92421
0d"
#92426
0a"
#92823
1>"
#93433
0l
#93530
12!
#93985
13!
#95286
1e
1%
#95502
0O
0<
#95511
0L
0?
#96801
1Q
1:
#100000
b11011000 #
b11011010 #
b11011011 #
b1011011 #
0!
#100514
1`!
#100516
1\!
1Z!
#100679
0g!
#100681
0g
#100819
0h
#100978
1[!
#100980
1]!
#102118
0."
#103394
1a!
#103754
0h!
#105373
0e
0%
#110000
1!
#110516
1g
#110670
1h
#111982
1."
#112414
0_"
#112418
1f"
1e"
#112427
1c"
#112823
0>"
1="
#113402
0o
#113457
03!
#113460
1q
#113484
02!
#113521
1l
#113542
1o
#113600
0q
#113939
13!
#115286
1e
1%
#115499
1M
1>
#115668
1K
1@
#115671
1J
1A
#116873
0Q
0:
#120000
b1010011 #
b1010001 #
b11010001 #
0!
#120514
1g!
#120679
0`!
#120681
0g
0\!
#120819
0h
#121146
0]!
#122118
0."
#123345
1h!
#123799
0a!
#125373
0e
0%
#130000
1!
#130516
1g
#130670
1h
#131982
1."
#132414
1_"
#132418
0e"
#132427
0c"
#132823
1>"
#133433
0l
#133530
12!
#133588
0o
#133646
1q
#133967
03!
#134025
0p
#134101
1r
#135286
1e
1%
#135491
0M
0>
#135688
0K
0@
#136801
1Q
1:
#140000
b11000001 #
b11000011 #
0!
#140516
1\!
#140679
0b!
#140681
0g
#140819
0h
#140980
1]!
#141386
0c!
#142118
0."
#145373
0e
0%
#150000
1!
#150516
1g
#150670
1h
#151982
1."
#152418
1e"
#152426
0b"
#152428
1;"
#152823
0<"
0>"
0="
#153007
0s
#153060
0r
#153197
0.!
#153462
1t
#153484
02!
#153485
0q
#153521
1l
#153522
1p
#153543
1s
#153612
1o
#153635
0,"
#153645
00!
#153940
1r
#153980
0t
#153995
11!
#153997
1,"
#154049
0p
#155286
1e
1%
#155523
0N
0=
#155668
1K
1@
#160000
b11000111 #
b11000110 #
b11001110 #
b11001100 #
0!
#160514
1`!
1^!
#160681
0g
0\!
0Z!
#160819
0h
#161143
0[!
#161146
0]!
#162118
0."
#163394
1a!
#163540
1_!
#165373
0e
0%
#170000
1!
#170516
1g
#170670
1h
#171982
1."
#172418
0f"
0e"
#172421
1d"
#172426
1N"
#172427
1c"
#172428
0;"
#173056
04!
#173085
0+"
#173133
1V!
#173147
0r
#173242
1.!
#173588
1W!
#173656
10!
#173965
01!
0,"
#175286
1e
1%
#175499
1M
1>
#175522
1L
1?
#175685
0J
0A
#175688
0K
0@
#176194
0b
0B
#177240
0c
0)
#180000
b10001100 #
b10101100 #
b10101000 #
b10101001 #
b10101011 #
0!
#180514
1d!
#180516
1\!
1Z!
#180679
0e!
0^!
#180681
0g
#180819
0h
#180978
1[!
#180980
1]!
#182118
0."
#183757
0f!
#183941
0_!
#185373
0e
0%
#190000
1!
#190516
1g
#190670
1h
#191982
1."
#192418
1f"
1e"
#192419
0`"
#192421
0d"
#192426
1a"
#192823
1>"
#193433
0l
#193461
1,"
#193530
12!
#193985
13!
#195286
1e
1%
#195496
0P
0;
#195508
1O
1<
#195511
0L
0?
#195668
1K
1@
#195671
1J
1A
#196753
1c
1)
#200000
b10111011 #
b11111011 #
b11011011 #
b11011010 #
0!
#200514
1e!
1b!
#200679
0d!
#200681
0g
0Z!
#200819
0h
#201143
0[!
#201212
1c!
#202118
0."
#203351
1f!
#205373
0e
0%
#210000
1!
#210516
1g
#210670
1h
#211982
1."
#212418
0f"
#212419
1`"
#212426
1b"
0a"
#212823
0>"
1="
#213402
0o
#213457
03!
#213484
02!
#213521
1l
#213542
1o
#213939
13!
#215286
1e
1%
#215502
0O
1P
1;
0<
#215529
1N
1=
#215685
0J
0A
#220000
b1011010 #
b1010010 #
b1010110 #
b1010100 #
b1110100 #
b1110101 #
0!
#220514
1d!
1^!
#220516
1Z!
#220679
0g!
0`!
#220681
0g
0\!
#220819
0h
#220978
1[!
#221146
0]!
#222118
0."
#223540
1_!
#223754
0h!
#223799
0a!
#225373
0e
0%
#230000
1!
#230516
1g
#230670
1h
#231982
1."
#232414
0_"
#232418
1f"
0e"
#232421
1d"
#232426
1a"
#232427
0c"
#232823
1>"
#233433
0l
#233530
12!
#233588
0o
#233967
03!
#234043
1p
#235286
1e
1%
#235491
0M
0>
#235508
1O
1<
#235522
1L
1?
#235671
1J
1A
#235688
0K
0@
#236873
0Q
0:
#240000
b110101 #
b10110101 #
b10010101 #
b10010100 #
0!
#240514
1g!
#240679
0e!
0d!
#240681
0g
0Z!
#240819
0h
#241143
0[!
#242118
0."
#243345
1h!
#243757
0f!
#245373
0e
0%
#250000
1!
#250516
1g
#250670
1h
#251982
1."
#252414
1_"
#252418
0f"
#252419
0`"
#252426
0a"
#252823
1<"
0>"
0="
#253454
0p
#253484
02!
#253521
1l
#253531
1q
#253612
1o
#253670
0q
#254067
1p
#255286
1e
1%
#255496
0P
0;
#255502
0O
0<
#255685
0J
0A
#256801
1Q
1:
#260000
b10011100 #
b11011100 #
b1011100 #
b1111100 #
0!
#260514
1e!
1d!
1`!
#260679
0g!
#260681
0g
#260819
0h
#262118
0."
#263351
1f!
#263394
1a!
#263754
0h!
#265373
0e
0%
#270000
1!
#270516
1g
#270670
1h
#271982
1."
#272414
0_"
#272419
1`"
#272426
1a"
#272427
1c"
#272823
1>"
#273433
0l
#273530
12!
#273985
13!
#275286
1e
1%
#275499
1M
1>
#275502
1P
1;
#275508
1O
1<
#276873
0Q
0:
#280000
b1101100 #
b1101000 #
b1101010 #
b1101011 #
b101011 #
0!
#280516
1\!
1Z!
#280679
0e!
0b!
0^!
#280681
0g
#280819
0h
#280978
1[!
#280980
1]!
#281386
0c!
#282118
0."
#283757
0f!
#283941
0_!
#285373
0e
0%
#290000
1!
#290516
1g
#290670
1h
#291982
1."
#292418
1f"
1e"
#292419
0`"
#292421
0d"
#292426
0b"
#292823
0>"
1="
#293402
0o
#293457
03!
#293460
1q
#293484
02!
#293521
1l
#293542
1o
#293600
0q
#293939
13!
#295286
1e
1%
#295496
0P
0;
#295511
0L
0?
#295523
0N
0=
#295668
1K
1@
#295671
1J
1A
#300000
b100011 #
b10100011 #
b10000011 #
b10010011 #
b10010111 #
b10010101 #
0!
#300514
1g!
1b!
1^!
#300679
0d!
0`!
#300681
0g
0\!
#300819
0h
#301146
0]!
#301212
1c!
#302118
0."
#303345
1h!
#303540
1_!
#303799
0a!
#305373
0e
0%
#310000
1!
#310516
1g
#310670
1h
#311982
1."
#312414
1_"
#312418
0e"
#312421
1d"
#312426
1b"
0a"
#312427
0c"
#312823
1>"
#313433
0l
#313530
12!
#313588
0o
#313646
1q
#313967
03!
#314025
0p
#314101
1r
#315286
1e
1%
#315491
0M
0>
#315502
0O
0<
#315522
1L
1?
#315529
1N
1=
#315688
0K
0@
#316801
1Q
1:
#320000
b11010101 #
b11010111 #
0!
#320514
1e!
#320516
1\!
#320681
0g
#320819
0h
#320980
1]!
#322118
0."
#323351
1f!
#325373
0e
0%
#330000
1!
#330516
1g
#330670
1h
#331982
1."
#332418
1e"
#332419
1`"
#332428
1;"
#332823
0<"
0>"
0="
#333007
0s
#333060
0r
#333197
0.!
#333462
1t
#333484
02!
#333485
0q
#333521
1l
#333522
1p
#333543
1s
#333612
1o
#333635
0,"
#333645
00!
#333940
1r
#333980
0t
#333995
11!
#333997
1,"
#334049
0p
#335286
1e
1%
#335502
1P
1;
